{
  "rulesDirectory": [
    "node_modules/codelyzer"
  ],
  "rules": {
    // ==================================================================================================
    // tslint rules. Documentacion: 
    // https://palantir.github.io/tslint/rules/
    // Reglas elegidas. Primera versión
    "arrow-return-shorthand": false,
    "callable-types": false,
    "class-name": true,
    "comment-format": false,
    "curly": true,
    "eofline": true,
    "forin": false,
    "import-blacklist": false,
    "import-spacing": true,
    "indent": [
      true,
      "spaces"
    ],
    "interface-over-type-literal": false,
    "label-position": false,
    "max-line-length": [
      true,
      140
    ],
    "member-access": [true, "no-public"],
    "member-ordering": [
      true,
      {
        "order": [
          "static-field",
          "instance-field",
          "static-method",
          "instance-method"
        ]
      }
    ],
    "no-arg": true,
    "no-bitwise": true,
    "no-console": [
      true,
      "debug",
      "info",
      "time",
      "timeEnd",
      "trace"
    ],
    "no-construct": true,
    "no-debugger": true,
    "no-duplicate-super": true,
    "no-empty": false,
    "no-eval": true,
    "no-misused-new": false,
    "no-non-null-assertion": true,
    "no-shadowed-variable": true,
    "no-string-literal": false,
    "no-string-throw": true,
    "no-switch-case-fall-through": true,
    "no-trailing-whitespace": true,
    "no-unnecessary-initializer": true,
    "no-unused-expression": true,
    "no-var-keyword": true,
    "object-literal-sort-keys": false,
    "prefer-const": true,
    "quotemark": [
      true,
      "single"
    ],
    "radix": false,
    "semicolon": [
      true,
      "always"
    ],
    "triple-equals": [
      true,
      "allow-null-check"
    ],
    "typedef-whitespace": false,
    "unified-signatures": true,
    "variable-name": true,
    "whitespace": [
      true,
      "check-branch",
      "check-decl",
      "check-operator",
      "check-separator",
      "check-type"
    ],
    // ==================================================================================================
    // codelyzer rules. Documentacion: 
    // http://codelyzer.com/rules/
    // Reglas elegidas. Primera versión
    "directive-selector": [
      true,
      "attribute",
      "bech",
      "camelCase"
    ],
    "component-selector": false,
    "use-input-property-decorator": true,
    "use-output-property-decorator": true,
    "use-host-property-decorator": true,
    "no-input-rename": true,
    "no-output-rename": true,
    "use-life-cycle-interface": true,
    "use-pipe-transform-interface": true,
    "component-class-suffix": true,
    "directive-class-suffix": true,
    "no-access-missing-member": true,
    "templates-use-public": true
  },
  
  "defaultSeverity": "error"
}
